<?xml version="1.0" standalone="no"?>
<!DOCTYPE svg PUBLIC "-//W3C//DTD SVG 20010904//EN"
 "http://www.w3.org/TR/2001/REC-SVG-20010904/DTD/svg10.dtd">
<svg version="1.0" xmlns="http://www.w3.org/2000/svg"
 width="1500.000000pt" height="1500.000000pt" viewBox="0 0 1500.000000 1500.000000"
 preserveAspectRatio="xMidYMid meet">
<metadata>
Created by potrace 1.14, written by Peter Selinger 2001-2017
</metadata>
<g transform="translate(0.000000,1500.000000) scale(0.100000,-0.100000)"
fill="#17A4DA" stroke="none">
<path d="M5973 13795 c-3 -9 2 -24 11 -34 9 -10 16 -23 16 -29 0 -7 5 -12 10
-12 6 0 10 -4 10 -8 0 -8 118 -218 235 -417 29 -49 62 -106 73 -125 11 -19 58
-102 106 -183 47 -82 97 -167 110 -190 13 -23 39 -69 58 -102 19 -33 58 -100
87 -150 28 -49 56 -97 61 -105 6 -8 13 -22 17 -30 4 -8 18 -33 32 -55 22 -35
167 -288 239 -415 14 -25 42 -74 64 -109 21 -34 38 -64 38 -66 0 -2 21 -39 47
-82 43 -72 92 -156 132 -228 55 -96 95 -165 117 -200 13 -22 34 -59 46 -82 23
-45 44 -55 55 -25 4 9 23 44 43 77 20 33 48 80 62 105 14 25 43 74 63 110 21
36 43 75 49 87 6 13 14 23 19 23 4 0 7 4 7 9 0 8 56 106 205 361 37 63 79 135
93 159 13 25 38 68 55 95 41 69 64 111 99 176 17 30 34 60 38 65 8 10 171 291
218 375 14 25 33 57 43 72 11 14 19 28 19 31 0 2 46 83 101 178 56 96 113 194
127 219 14 25 33 57 43 72 11 14 19 29 19 32 0 4 25 47 55 97 30 50 55 92 55
94 0 7 92 159 107 176 7 9 11 23 7 32 -5 15 -141 16 -1545 17 -1374 0 -1540
-2 -1546 -15z"/>
<path d="M9080 10245 c-7 -9 36 -90 160 -300 26 -44 58 -100 72 -125 14 -25
41 -72 60 -105 43 -75 342 -593 473 -820 54 -93 132 -228 173 -300 41 -71 82
-143 92 -160 31 -52 172 -299 187 -325 105 -192 311 -535 321 -535 7 0 23 18
35 40 12 22 25 42 30 43 4 2 7 7 7 12 0 5 20 43 45 84 25 42 45 79 45 81 0 3
16 29 35 60 19 30 46 74 58 97 29 54 68 122 124 215 24 40 43 75 43 77 0 3 25
46 55 96 30 50 55 93 55 95 0 2 25 44 55 94 30 50 55 93 55 96 0 2 15 28 34
57 18 29 45 76 60 103 14 28 37 68 50 90 14 22 37 63 52 90 14 28 35 62 45 77
11 14 19 29 19 32 0 3 25 46 55 96 30 50 55 93 55 96 0 3 16 30 35 60 19 30
35 56 35 58 0 1 39 70 86 152 47 82 96 167 109 189 113 199 249 432 256 440 5
5 9 17 9 27 0 17 -18 18 -292 19 -2352 4 -2781 3 -2788 -6z"/>
<path d="M3448 10182 l-568 -2 0 -24 c0 -12 11 -36 24 -51 14 -16 25 -31 24
-34 -1 -13 15 -51 21 -51 4 0 15 -17 26 -37 11 -21 22 -40 26 -43 3 -3 9 -12
12 -20 4 -8 21 -37 37 -65 16 -27 35 -61 42 -75 7 -14 15 -27 18 -30 10 -10
31 -45 36 -62 4 -10 10 -18 14 -18 5 0 11 -13 15 -30 4 -16 10 -30 14 -30 4 0
16 -18 27 -40 10 -22 22 -40 27 -40 4 0 7 -6 7 -14 0 -8 6 -21 13 -28 12 -13
28 -40 64 -108 10 -19 21 -37 24 -40 3 -3 9 -12 12 -20 4 -8 17 -31 28 -50 12
-19 34 -58 50 -87 15 -28 51 -88 79 -132 27 -45 50 -84 50 -87 0 -6 20 -41 87
-149 22 -37 98 -170 102 -180 2 -5 7 -12 10 -15 9 -7 30 -42 41 -68 5 -12 26
-47 45 -77 19 -31 35 -58 35 -61 0 -3 11 -20 25 -38 14 -18 25 -37 25 -41 0
-4 11 -23 25 -41 14 -18 25 -37 25 -43 0 -6 4 -11 9 -11 5 0 12 -13 16 -29 3
-16 13 -35 21 -42 8 -6 14 -18 14 -25 0 -8 3 -14 8 -14 7 0 25 -30 38 -62 3
-10 10 -18 15 -18 5 0 9 -9 9 -20 0 -11 5 -20 12 -20 6 0 8 -3 5 -7 -4 -3 0
-14 8 -23 17 -18 59 -92 77 -132 7 -16 16 -28 20 -28 4 0 8 -7 8 -15 0 -8 5
-15 11 -15 5 0 7 -4 4 -10 -3 -5 -1 -10 4 -10 6 0 11 -7 11 -15 0 -8 4 -15 9
-15 5 0 12 -13 16 -30 4 -16 10 -30 14 -30 3 0 15 -17 26 -37 11 -21 26 -44
32 -51 7 -7 13 -20 13 -28 0 -8 5 -14 10 -14 6 0 10 -7 10 -15 0 -9 9 -15 25
-15 14 0 25 5 25 10 0 6 16 35 35 65 19 30 32 55 28 55 -4 0 3 10 15 23 12 13
19 27 15 30 -3 4 -1 7 5 7 7 0 12 5 12 10 0 6 15 34 33 63 18 29 39 66 47 82
8 17 17 32 20 35 3 3 10 14 16 25 6 11 22 41 37 67 14 25 23 49 20 52 -4 3 -2
6 3 6 5 0 25 29 44 65 19 36 38 65 41 65 4 0 10 14 14 30 4 17 10 30 15 30 4
0 11 11 14 25 4 14 11 25 16 25 6 0 10 6 10 14 0 8 3 16 8 18 4 2 18 26 32 53
14 28 27 52 30 55 3 3 14 22 25 43 11 20 23 37 26 37 4 0 10 12 14 27 3 15 17
40 31 56 13 16 24 37 24 48 0 10 4 19 8 19 5 0 17 18 28 40 10 22 22 40 27 40
4 0 7 6 7 14 0 8 6 21 14 28 7 8 17 25 21 38 4 14 10 27 14 30 10 8 31 44 37
63 4 9 10 17 15 17 5 0 9 6 9 13 0 7 11 29 25 50 14 20 22 37 18 37 -4 0 -3 4
2 8 6 4 19 24 30 45 11 20 22 37 25 37 3 0 14 20 24 45 11 25 23 45 27 45 4 0
11 10 15 23 4 12 18 40 32 61 24 39 38 64 102 181 18 33 36 62 39 65 4 3 15
21 24 40 10 19 22 42 27 50 39 66 78 134 103 180 17 30 38 69 48 85 10 17 30
53 45 80 14 28 35 62 45 77 11 14 19 31 19 36 0 6 7 17 15 26 8 8 18 29 21 46
l7 30 -974 -2 c-536 -2 -1229 -4 -1541 -6z"/>
<path d="M7457 10148 c-8 -18 -30 -59 -50 -90 -21 -31 -37 -62 -37 -68 0 -5
-4 -10 -10 -10 -5 0 -10 -6 -10 -12 0 -12 -77 -147 -97 -173 -5 -5 -19 -32
-33 -60 -14 -27 -28 -51 -32 -53 -5 -2 -8 -10 -8 -17 0 -7 -3 -15 -7 -17 -5
-1 -17 -19 -27 -38 -11 -19 -33 -60 -49 -90 -17 -30 -33 -57 -37 -60 -3 -3
-11 -16 -17 -30 -7 -14 -24 -43 -38 -65 -14 -22 -28 -47 -32 -55 -4 -8 -24
-43 -45 -78 -21 -34 -38 -66 -38 -71 0 -5 -3 -11 -7 -13 -9 -4 -42 -60 -79
-135 -15 -29 -30 -53 -35 -53 -5 0 -9 -4 -9 -10 0 -5 -18 -39 -40 -75 -22 -36
-40 -69 -40 -74 0 -5 -6 -16 -13 -23 -7 -7 -21 -29 -30 -48 -10 -19 -27 -48
-37 -65 -11 -16 -24 -39 -29 -51 -5 -12 -26 -46 -45 -77 -20 -31 -36 -61 -36
-67 0 -5 -4 -10 -8 -10 -8 0 -36 -60 -33 -72 0 -5 -3 -8 -7 -8 -9 0 -45 -59
-49 -80 -1 -8 -8 -19 -15 -25 -7 -5 -28 -40 -47 -77 -19 -38 -38 -68 -43 -68
-4 0 -8 -6 -8 -13 0 -7 -11 -29 -25 -50 -14 -20 -23 -37 -20 -37 4 0 -1 -7 -9
-16 -9 -8 -16 -21 -16 -28 0 -7 -8 -21 -17 -32 -10 -10 -25 -32 -33 -49 -8
-16 -21 -38 -29 -47 -8 -10 -11 -18 -8 -18 4 0 0 -8 -8 -17 -8 -10 -16 -22
-16 -28 -1 -5 -14 -29 -30 -52 -16 -23 -29 -44 -29 -48 0 -3 -12 -22 -26 -41
-15 -19 -24 -34 -20 -34 3 0 -4 -17 -17 -37 -13 -21 -26 -42 -28 -48 -2 -5
-14 -26 -26 -45 -12 -19 -21 -38 -20 -41 1 -4 -6 -16 -16 -27 -10 -11 -26 -35
-36 -53 -23 -45 -56 -102 -97 -170 -19 -31 -34 -62 -34 -68 0 -6 -4 -11 -10
-11 -5 0 -10 -5 -10 -10 0 -6 -11 -28 -24 -49 -14 -21 -22 -42 -19 -45 4 -3 1
-6 -5 -6 -7 0 -12 -7 -12 -15 0 -8 -4 -15 -10 -15 -5 0 -10 -6 -10 -14 0 -8
-6 -21 -13 -28 -6 -7 -23 -35 -37 -63 -14 -27 -30 -55 -36 -62 -6 -6 -17 -26
-24 -45 -8 -18 -17 -35 -21 -38 -4 -3 -20 -30 -36 -60 -43 -81 -85 -154 -92
-160 -3 -3 -13 -18 -21 -35 -8 -16 -21 -38 -29 -47 -8 -10 -10 -18 -5 -18 5 0
4 -4 -2 -8 -6 -4 -35 -52 -66 -107 -93 -169 -111 -200 -122 -207 -6 -4 -8 -8
-3 -8 4 0 -4 -18 -18 -40 -14 -22 -25 -44 -25 -50 0 -5 -4 -10 -10 -10 -5 0
-10 -4 -10 -8 0 -9 -82 -159 -97 -177 -5 -5 -19 -32 -33 -60 -14 -27 -28 -51
-32 -53 -5 -2 -8 -8 -8 -13 0 -5 -12 -28 -27 -52 -14 -23 -40 -67 -56 -97 -17
-30 -44 -77 -61 -105 -17 -27 -42 -72 -56 -100 -14 -27 -28 -52 -31 -55 -3 -3
-14 -21 -24 -40 -10 -19 -21 -37 -25 -40 -3 -3 -19 -31 -35 -63 -15 -33 -33
-64 -39 -71 -11 -12 -33 -50 -71 -123 -12 -23 -27 -49 -34 -56 -9 -11 -8 -17
2 -25 9 -8 670 -11 2257 -11 1235 0 2609 0 3054 -1 496 -1 813 3 818 8 6 6
-11 47 -47 108 -32 55 -66 113 -75 130 -18 31 -237 411 -270 469 -10 17 -66
113 -125 215 -59 102 -119 205 -133 230 -14 25 -48 86 -77 135 -28 50 -63 110
-77 135 -34 60 -206 360 -279 488 -11 17 -27 47 -37 65 -11 17 -45 77 -77 132
-32 55 -72 125 -88 155 -17 30 -48 84 -69 119 -21 34 -38 64 -38 66 0 2 -21
39 -46 82 -26 43 -60 105 -77 138 -17 33 -80 146 -140 250 -61 105 -302 525
-537 935 -819 1431 -854 1490 -872 1490 -11 0 -23 -13 -31 -32z"/>
<path d="M5968 3809 c-6 -4 -8 -15 -4 -24 3 -10 95 -171 203 -359 108 -187
362 -629 563 -981 660 -1153 755 -1316 768 -1313 7 2 23 21 35 43 12 21 28 46
35 55 7 8 13 20 14 25 0 6 12 27 24 47 13 21 24 42 24 48 0 5 4 10 9 10 5 0
13 13 19 28 5 16 16 35 23 43 8 8 25 38 39 66 14 29 28 53 33 53 4 0 7 5 7 11
0 6 20 44 45 85 25 40 45 78 45 84 0 5 5 10 10 10 6 0 10 5 10 10 0 6 18 39
40 74 22 35 40 68 40 74 0 6 6 17 13 24 6 8 17 23 23 33 41 76 50 91 56 95 4
3 12 17 18 30 5 14 24 48 41 75 16 28 33 58 36 68 3 9 9 17 14 17 5 0 9 6 9
14 0 8 3 16 8 18 4 2 14 17 23 33 44 84 65 120 72 123 4 2 7 8 7 13 0 5 18 38
40 73 22 35 40 68 40 74 0 6 6 17 13 24 13 15 32 46 59 97 9 18 25 42 34 52 9
11 14 19 10 19 -3 0 5 18 19 40 14 22 25 44 25 50 0 5 4 10 10 10 5 0 12 11
16 25 3 14 10 25 15 25 5 0 9 7 9 15 0 8 3 15 8 15 4 0 18 25 32 55 14 30 28
55 31 55 4 0 9 8 13 18 3 9 22 44 42 77 19 33 38 68 41 78 3 9 9 17 13 17 4 0
10 8 14 18 3 9 17 35 31 57 14 22 31 51 37 65 7 14 21 35 32 48 11 12 16 22
13 22 -4 0 4 18 18 40 14 22 25 44 25 49 0 5 4 11 9 13 10 3 35 45 78 128 15
30 32 58 36 61 5 4 6 15 3 25 -6 18 -46 19 -1363 22 -747 2 -1434 4 -1526 5
-93 1 -174 -1 -179 -4z"/>
</g>
</svg>
